…
    ## `summarise()` ungrouping output (override with `.groups` argument)

``` r
aggregate_df
```

    ## # A tibble: 50 x 3
    ##    city_state     hom_total hom_unsolved
    ##    <chr>              <int>        <int>
    ##  1 Albuquerque_NM       378          146
    ##  2 Atlanta_GA           973          373
    ##  3 Baltimore_MD        2827         1825
    ##  4 Baton Rouge_LA       424          196
    ##  5 Birmingham_AL        800          347
    ##  6 Boston_MA            614          310
    ##  7 Buffalo_NY           521          319
    ##  8 Charlotte_NC         687          206
    ##  9 Chicago_IL          5535         4073
    ## 10 Cincinnati_OH        694          309
    ## # ... with 40 more rows
…
``` r
# Let's simulate 5000 times for mu = 0
output_0 = vector("list", length = 5000)

for (i in 1:5000) {
  
  output_0[[i]] = sim_t_test(0)
  
}

bind_rows(output_0)
```

    ## # A tibble: 5,000 x 2
    ##    estimate p.value
    ##       <dbl>   <dbl>
    ##  1   0.666    0.370
    ##  2  -0.942    0.258
    ##  3  -0.309    0.784
    ##  4   0.208    0.787
    ##  5   0.0500   0.955
    ##  6  -0.476    0.569
    ##  7   0.616    0.476
    ##  8   1.07     0.298
    ##  9   0.623    0.514
    ## 10   0.0397   0.969
    ## # ... with 4,990 more rows
…
